{
    "id": "6c364720-f665-48d2-8d9e-1d370b278834",
    "schema": "https://metadata.datadrivendiscovery.org/schemas/v0/pipeline.json",
    "created": "2020-10-13T16:54:30.594127Z",
    "inputs": [
        {
            "name": "inputs"
        }
    ],
    "outputs": [
        {
            "data": "steps.1.produce",
            "name": "output"
        }
    ],
    "steps": [
        {
            "type": "PRIMITIVE",
            "primitive": {
                "id": "79012210-2463-4f94-9da6-11bdc5a7e6c4",
                "version": "0.5.0",
                "python_path": "d3m.primitives.data_transformation.load_single_graph.DistilSingleGraphLoader",
                "name": "Load single graph and dataframe into a parseable object"
            },
            "arguments": {
                "inputs": {
                    "type": "CONTAINER",
                    "data": "inputs.0"
                }
            },
            "outputs": [
                {
                    "id": "produce"
                },
                {
                    "id": "produce_target"
                }
            ]
        },
        {
            "type": "PRIMITIVE",
            "primitive": {
                "id": "064cec55-39dd-45b7-a663-50d3e17e0c42",
                "version": "0.5.0",
                "python_path": "d3m.primitives.community_detection.community_detection.DistilCommunityDetection",
                "name": "CommunityDetection"
            },
            "arguments": {
                "inputs": {
                    "type": "CONTAINER",
                    "data": "steps.0.produce"
                },
                "outputs": {
                    "type": "CONTAINER",
                    "data": "steps.0.produce_target"
                }
            },
            "outputs": [
                {
                    "id": "produce"
                }
            ]
        }
    ],
    "digest": "aaeadc6019d53069e90f43f17e9ed0cd7373587d3e8737312ac1d8067e69e160"
}
