{
    "id": "63b599f7-7a3c-48e3-92c9-973030221788",
    "schema": "https://metadata.datadrivendiscovery.org/schemas/v0/pipeline.json",
    "created": "2020-06-10T21:33:00.185997Z",
    "inputs": [
        {
            "name": "inputs"
        }
    ],
    "outputs": [
        {
            "data": "steps.0.produce",
            "name": "Predictions"
        }
    ],
    "steps": [
        {
            "type": "PRIMITIVE",
            "primitive": {
                "id": "ff22e721-e4f5-32c9-ab51-b90f32603a56",
                "version": "0.1.0",
                "python_path": "d3m.primitives.graph_matching.seeded_graph_matching.JHU",
                "name": "jhu.sgm",
                "digest": "88e74da147b9909e1055be4bb04dbe21db2019d519f28dc0b05aacfcc5da23e7"
            },
            "arguments": {
                "inputs": {
                    "type": "CONTAINER",
                    "data": "inputs.0"
                }
            },
            "outputs": [
                {
                    "id": "produce"
                }
            ]
        }
    ],
    "digest": "5e909bc9597dabdf81758409679f13efdf96827dc885965ac2da1e282b7a6f8e"
}