{
    "id": "a251becc-d0d3-4234-adbf-f8f228b54102",
    "schema": "https://metadata.datadrivendiscovery.org/schemas/v0/pipeline.json",
    "created": "2020-02-06T14:49:24.528095Z",
    "inputs": [
        {
            "name": "inputs"
        }
    ],
    "outputs": [
        {
            "data": "steps.0.produce",
            "name": "Predictions"
        }
    ],
    "steps": [
        {
            "type": "PRIMITIVE",
            "primitive": {
                "id": "ff22e721-e4f5-32c9-ab51-b90f32603a56",
                "version": "0.1.0",
                "python_path": "d3m.primitives.graph_matching.seeded_graph_matching.JHU",
                "name": "jhu.sgm",
                "digest": "b8f2e7967fbf9f9adf46c214215a1f6ca3bfa4fe63e3c09d204ad3c16881f450"
            },
            "arguments": {
                "inputs": {
                    "type": "CONTAINER",
                    "data": "inputs.0"
                }
            },
            "outputs": [
                {
                    "id": "produce"
                }
            ]
        }
    ],
    "digest": "75c7bbfa9db30c3b1d6a8541ddabc2ec5d0d421c1dd7ac5cb4ac36c1edc9bcf6"
}